%YAML 1.1
%TAG !u! tag:unity3d.com,2011:
--- !u!114 &11400000
MonoBehaviour:
  m_ObjectHideFlags: 0
  m_PrefabParentObject: {fileID: 0}
  m_PrefabInternal: {fileID: 0}
  m_GameObject: {fileID: 0}
  m_Enabled: 1
  m_EditorHideFlags: 0
  m_Script: {fileID: 11500000, guid: 0778fe82a4b052e40ac6080829471948, type: 3}
  m_Name: Level5
  m_EditorClassIdentifier: 
  showControlsHelp: 0
  fuelGoal: 10
  planetBackground: {fileID: 21300000, guid: bd64883cf0fa3e44cb0c1073975dab1b, type: 3}
  planetForeground: {fileID: 0}
  planetName: Dune
  timeBeforeInvasion: 30
  replicantCount: 30
  activeSpawnerRange: {x: 4, y: 6}
  shipSizeRange: {x: 4, y: 6}
